%YAML 1.1
%TAG !u! tag:unity3d.com,2011:
--- !u!1045 &1
EditorBuildSettings:
  m_ObjectHideFlags: 0
  serializedVersion: 2
  m_Scenes:
  - enabled: 0
    path: 
    guid: 00000000000000000000000000000000
  - enabled: 1
    path: Assets/Scenes/MainMenu.unity
    guid: 76ae53ca51fe4b64c9c883f6c5f8dcab
  - enabled: 1
    path: Assets/Scenes/CarSelection.unity
    guid: e47c0aee9fac03240b0f5f636c5330b8
  - enabled: 1
    path: Assets/Scenes/TrackSelection.unity
    guid: 16dbb2b01851ba746b6fd753c65fc685
  - enabled: 1
    path: Assets/Scenes/OpenWorldScene.unity
    guid: a0ac5f1247acb7346958595bb795a714
  - enabled: 1
    path: Assets/Scenes/Credits.unity
    guid: 0cdf4c55e3d6d434d9452465d85efa4d
  m_configObjects: {}
