%YAML 1.1
%TAG !u! tag:unity3d.com,2011:
--- !u!78 &1
TagManager:
  serializedVersion: 2
  tags:
  - Terrain
  - Light
  - Computer01
  - Quit
  - PlayGame
  - CarBody
  - AudiBody
  - SkyCar
  - AudiCar
  - Credits
  - PorscheCar
  - VWPoloCar
  - SpawnPoint
  - Loader
  - Computer02
  - Computer03
  - Computer
  - Options
  layers:
  - Default
  - TransparentFX
  - Ignore Raycast
  - 
  - Water
  - UI
  - 
  - 
  - PostProcessing
  - MiniMap Components
  - MiniMap Hidden
  - Vehicles
  - PostProcessingBlur
  - 
  - 
  - 
  - 
  - 
  - 
  - 
  - 
  - 
  - 
  - 
  - 
  - 
  - 
  - 
  - 
  - 
  - 
  - 
  m_SortingLayers:
  - name: Default
    uniqueID: 0
    locked: 0
